<svg width="64" height="64" viewBox="0 0 64 64" fill="none" xmlns="http://www.w3.org/2000/svg">
<g clip-path="url(#clip0_1_28)">
<circle cx="32" cy="32" r="32" fill="#10BBD5"/>
<path d="M43.7431 50.844C43.5293 50.8441 43.3179 50.7984 43.1232 50.7101C42.9285 50.6218 42.7549 50.4929 42.6141 50.332L37.8211 44.855C35.8911 45.3518 33.906 45.6022 31.9131 45.6C26.6001 45.6 21.5851 43.87 17.8001 40.735C13.9371 37.535 11.8091 33.25 11.8091 28.676C11.8091 24.102 13.9411 19.82 17.8001 16.618C21.5851 13.483 26.6001 11.756 31.9131 11.756C37.2261 11.756 42.2411 13.483 46.0231 16.618C49.8861 19.818 52.0131 24.103 52.0131 28.676C52.0131 33.558 49.5561 38.136 45.2431 41.348V49.348C45.2431 49.7459 45.085 50.1274 44.8037 50.4087C44.5224 50.69 44.1409 50.848 43.7431 50.848V50.844ZM38.3261 41.656C38.5399 41.656 38.7512 41.7017 38.9459 41.79C39.1407 41.8783 39.3142 42.0072 39.4551 42.168L42.2431 45.353V40.577C42.2434 40.3326 42.3034 40.092 42.4179 39.876C42.5324 39.6601 42.6979 39.4754 42.9001 39.338C46.7881 36.679 49.0171 32.793 49.0171 28.676C49.0171 21.001 41.3461 14.756 31.9171 14.756C22.4881 14.756 14.8171 21.001 14.8171 28.676C14.8171 36.351 22.4841 42.6 31.9131 42.6C33.9374 42.6046 35.9512 42.3094 37.8891 41.724C38.0306 41.6798 38.1778 41.6569 38.3261 41.656Z" fill="#F8FDFE"/>
<path d="M26.5491 32.8C26.5001 32.8 26.4491 32.8 26.4021 32.793C26.3551 32.786 26.3021 32.78 26.2561 32.771C26.2101 32.762 26.1561 32.749 26.1141 32.735C26.0721 32.721 26.0201 32.704 25.9751 32.685C25.9301 32.666 25.8861 32.645 25.8431 32.622C25.7995 32.5992 25.7571 32.5742 25.7161 32.547C25.6761 32.52 25.6361 32.491 25.5981 32.46C25.5601 32.429 25.5231 32.395 25.4881 32.36C25.4531 32.325 25.4201 32.288 25.3881 32.25C25.3561 32.212 25.3281 32.172 25.3011 32.132C25.274 32.091 25.2489 32.0486 25.2261 32.005C25.2028 31.9617 25.1818 31.9177 25.1631 31.873C25.1444 31.8279 25.128 31.7819 25.1141 31.735C25.0992 31.6882 25.0872 31.6404 25.0781 31.592C25.0678 31.5442 25.0605 31.4958 25.0561 31.447C25.0509 31.3979 25.0483 31.3485 25.0481 31.299C25.0482 31.2499 25.0509 31.2009 25.0561 31.152C25.066 31.0541 25.0855 30.9573 25.1141 30.863C25.128 30.8162 25.1444 30.7702 25.1631 30.725C25.1824 30.6804 25.2034 30.6364 25.2261 30.593C25.2489 30.5495 25.274 30.5071 25.3011 30.466C25.3281 30.426 25.3571 30.386 25.3881 30.348C25.4191 30.31 25.4531 30.273 25.4881 30.238C25.5231 30.203 25.5601 30.17 25.5981 30.138C25.6361 30.106 25.6761 30.078 25.7161 30.051C25.7569 30.0236 25.7993 29.9985 25.8431 29.976C25.8864 29.9534 25.9304 29.9324 25.9751 29.913C26.0205 29.8939 26.0669 29.8772 26.1141 29.863C26.1601 29.849 26.2081 29.837 26.2561 29.827C26.3041 29.817 26.3561 29.81 26.4021 29.805C26.5002 29.795 26.599 29.795 26.6971 29.805C26.7451 29.81 26.7971 29.818 26.8421 29.827C26.8871 29.836 26.9421 29.849 26.9851 29.863C27.0319 29.8773 27.078 29.894 27.1231 29.913C27.1681 29.932 27.2131 29.953 27.2561 29.976C27.2994 29.9987 27.3415 30.0238 27.3821 30.051C27.4229 30.078 27.4623 30.1071 27.5001 30.138C27.5381 30.169 27.5751 30.203 27.6101 30.238C27.6451 30.273 27.6781 30.31 27.7101 30.348C27.7421 30.386 27.7701 30.426 27.7971 30.466C27.8242 30.5071 27.8493 30.5495 27.8721 30.593C27.8948 30.6364 27.9158 30.6804 27.9351 30.725C27.9541 30.77 27.9701 30.817 27.9851 30.863C28.0001 30.909 28.0111 30.963 28.0211 31.006C28.0407 31.1025 28.0504 31.2006 28.0501 31.299C28.0503 31.3485 28.0479 31.3979 28.0431 31.447C28.0382 31.4957 28.0309 31.5441 28.0211 31.592C28.0111 31.64 27.9991 31.692 27.9851 31.735C27.9711 31.778 27.9541 31.828 27.9351 31.873C27.9161 31.918 27.8951 31.962 27.8721 32.005C27.8493 32.0486 27.8242 32.091 27.7971 32.132C27.7701 32.172 27.7411 32.212 27.7101 32.25C27.6791 32.288 27.6451 32.325 27.6101 32.36C27.5751 32.395 27.5381 32.428 27.5001 32.46C27.4623 32.491 27.4229 32.5201 27.3821 32.547C27.3408 32.5737 27.2988 32.5987 27.2561 32.622C27.2131 32.645 27.1681 32.666 27.1231 32.685C27.0781 32.704 27.0311 32.72 26.9851 32.735C26.9391 32.75 26.8901 32.761 26.8421 32.771C26.7941 32.781 26.7421 32.788 26.6971 32.793C26.6521 32.798 26.6001 32.8 26.5491 32.8Z" fill="#F8FDFE"/>
<path d="M37.65 32.8C37.6009 32.8002 37.5519 32.7978 37.503 32.793C37.454 32.788 37.403 32.78 37.357 32.771C37.311 32.762 37.257 32.749 37.215 32.735C37.173 32.721 37.122 32.704 37.077 32.685C37.032 32.666 36.987 32.645 36.944 32.622C36.8578 32.5758 36.7761 32.5216 36.7 32.46C36.662 32.429 36.625 32.395 36.591 32.36C36.5559 32.3251 36.5225 32.2883 36.491 32.25C36.46 32.212 36.43 32.172 36.403 32.132C36.3759 32.091 36.3509 32.0486 36.328 32.005C36.3054 31.9617 36.2844 31.9177 36.265 31.873C36.247 31.828 36.23 31.781 36.216 31.735C36.2011 31.6881 36.1891 31.6404 36.18 31.592C36.1607 31.4955 36.1507 31.3974 36.15 31.299C36.1502 31.2496 36.1529 31.2002 36.158 31.151C36.1629 31.1023 36.1703 31.0539 36.18 31.006C36.1891 30.9577 36.2011 30.9099 36.216 30.863C36.23 30.817 36.247 30.77 36.265 30.725C36.283 30.68 36.305 30.636 36.328 30.593C36.3509 30.5494 36.3759 30.5071 36.403 30.466C36.43 30.426 36.46 30.386 36.491 30.348C36.5225 30.3097 36.5559 30.273 36.591 30.238C36.625 30.204 36.662 30.17 36.7 30.138C36.7764 30.0764 36.8584 30.0222 36.945 29.976C36.988 29.953 37.032 29.932 37.078 29.913C37.124 29.894 37.169 29.878 37.216 29.863C37.263 29.848 37.31 29.837 37.358 29.827C37.406 29.817 37.458 29.81 37.504 29.805C37.6038 29.7957 37.7042 29.7957 37.804 29.805C37.852 29.81 37.904 29.818 37.949 29.827C37.994 29.836 38.049 29.849 38.092 29.863C38.135 29.877 38.185 29.894 38.23 29.913C38.275 29.932 38.32 29.953 38.363 29.976C38.406 29.999 38.448 30.024 38.489 30.051C38.53 30.0777 38.5694 30.1068 38.607 30.138C38.645 30.169 38.682 30.203 38.717 30.238C38.752 30.273 38.785 30.31 38.817 30.348C38.849 30.386 38.877 30.426 38.904 30.466C38.9315 30.507 38.9568 30.5494 38.98 30.593C39.002 30.636 39.024 30.68 39.042 30.725C39.0611 30.7701 39.0777 30.8162 39.092 30.863C39.106 30.91 39.118 30.963 39.128 31.006C39.138 31.049 39.145 31.106 39.15 31.151C39.1549 31.2002 39.1572 31.2496 39.157 31.299C39.1572 31.3481 39.1549 31.3972 39.15 31.446C39.145 31.495 39.137 31.546 39.128 31.592C39.119 31.638 39.106 31.692 39.092 31.735C39.0777 31.7818 39.0611 31.8279 39.042 31.873C39.024 31.918 39.002 31.962 38.98 32.005C38.9568 32.0486 38.9315 32.091 38.904 32.132C38.877 32.172 38.848 32.212 38.817 32.25C38.786 32.288 38.752 32.325 38.717 32.36C38.682 32.395 38.645 32.428 38.607 32.46C38.5694 32.4912 38.53 32.5203 38.489 32.547C38.4484 32.5737 38.4064 32.5987 38.363 32.622C38.32 32.645 38.275 32.666 38.23 32.685C38.185 32.704 38.138 32.72 38.092 32.735C38.046 32.75 37.997 32.761 37.949 32.771C37.901 32.781 37.849 32.788 37.804 32.793C37.7529 32.798 37.7014 32.8004 37.65 32.8Z" fill="#F8FDFE"/>
<path d="M32.1001 32.8C31.7024 32.799 31.3212 32.6413 31.0391 32.361C31.0039 32.3261 30.9705 32.2894 30.9391 32.251C30.9081 32.213 30.8791 32.173 30.8511 32.133C30.8231 32.093 30.7991 32.05 30.7761 32.006C30.753 31.9632 30.7323 31.9191 30.7141 31.874C30.695 31.8289 30.6784 31.7829 30.6641 31.736C30.6501 31.689 30.6381 31.636 30.6281 31.593C30.6183 31.5451 30.611 31.4967 30.6061 31.448C30.5965 31.3483 30.5965 31.2478 30.6061 31.148C30.611 31.0994 30.6183 31.051 30.6281 31.003C30.6381 30.955 30.6501 30.903 30.6641 30.86C30.6784 30.8132 30.695 30.7671 30.7141 30.722C30.7323 30.6769 30.753 30.6329 30.7761 30.59C30.7991 30.546 30.8251 30.504 30.8511 30.463C30.8771 30.422 30.9081 30.383 30.9391 30.345C30.9705 30.3067 31.0039 30.27 31.0391 30.235C31.1964 30.0789 31.3862 29.9592 31.595 29.8846C31.8037 29.8099 32.0264 29.7821 32.2471 29.803C32.2961 29.808 32.3471 29.816 32.3931 29.825C32.4391 29.834 32.4881 29.847 32.5351 29.861C32.5821 29.875 32.6281 29.892 32.6731 29.911C32.7181 29.93 32.7631 29.951 32.8061 29.974C32.8927 30.0202 32.9747 30.0744 33.0511 30.136C33.0891 30.167 33.1261 30.201 33.1601 30.236C33.1952 30.271 33.2286 30.3077 33.2601 30.346C33.2911 30.384 33.3211 30.424 33.3481 30.464C33.3752 30.5051 33.4002 30.5475 33.4231 30.591C33.4457 30.6344 33.4667 30.6784 33.4861 30.723C33.5041 30.768 33.5211 30.815 33.5351 30.861C33.55 30.9079 33.562 30.9557 33.5711 31.004C33.5808 31.052 33.5882 31.1004 33.5931 31.149C33.604 31.2487 33.604 31.3493 33.5931 31.449C33.5882 31.4977 33.5808 31.5461 33.5711 31.594C33.562 31.6424 33.55 31.6902 33.5351 31.737C33.5211 31.783 33.5041 31.83 33.4861 31.875C33.4681 31.92 33.4461 31.964 33.4231 32.007C33.4002 32.0506 33.3752 32.093 33.3481 32.134C33.3211 32.174 33.2911 32.214 33.2601 32.252C33.2286 32.2904 33.1952 32.3271 33.1601 32.362C33.1261 32.396 33.0891 32.429 33.0511 32.462C32.9747 32.5236 32.8927 32.5779 32.8061 32.624C32.7631 32.647 32.7181 32.668 32.6731 32.687C32.6281 32.706 32.5821 32.722 32.5351 32.737C32.4881 32.752 32.4351 32.763 32.3931 32.773C32.3511 32.783 32.2931 32.79 32.2471 32.795C32.1982 32.7992 32.1491 32.8009 32.1001 32.8Z" fill="#F8FDFE"/>
</g>
<defs>
<clipPath id="clip0_1_28">
<rect width="64" height="64" fill="white"/>
</clipPath>
</defs>
</svg>
